<?xml version="1.0" encoding="UTF-8" standalone="no"?>
<svg
   xmlns:dc="http://purl.org/dc/elements/1.1/"
   xmlns:cc="http://creativecommons.org/ns#"
   xmlns:rdf="http://www.w3.org/1999/02/22-rdf-syntax-ns#"
   xmlns:svg="http://www.w3.org/2000/svg"
   xmlns="http://www.w3.org/2000/svg"
   xmlns:sodipodi="http://sodipodi.sourceforge.net/DTD/sodipodi-0.dtd"
   xmlns:inkscape="http://www.inkscape.org/namespaces/inkscape"
   version="1.1"
   width="2000"
   height="2000"
   viewBox="0 0 2000 2000"
   id="svg6"
   sodipodi:docname="vim-1.svg"
   inkscape:version="0.92.4 5da689c313, 2019-01-14">
  <defs
     id="defs10" />
  <sodipodi:namedview
     pagecolor="#ffffff"
     bordercolor="#666666"
     borderopacity="1"
     objecttolerance="10"
     gridtolerance="10"
     guidetolerance="10"
     inkscape:pageopacity="0"
     inkscape:pageshadow="2"
     inkscape:window-width="1920"
     inkscape:window-height="1015"
     id="namedview8"
     showgrid="false"
     inkscape:zoom="0.23046875"
     inkscape:cx="1068.7743"
     inkscape:cy="987.0302"
     inkscape:window-x="0"
     inkscape:window-y="0"
     inkscape:window-maximized="1"
     inkscape:current-layer="svg6" />
  <path
     d="m 1139.1802,1269.4039 c 3.1936,3.2878 9.5046,8.2195 14.2949,8.2195 h 84.3246 c 4.7903,0 11.1013,-4.9317 14.2949,-8.2195 l 22.2787,-24.5802 c 3.1935,-3.2878 4.7903,-6.5756 4.7903,-9.7851 l 23.8755,-83.5258 c 1.5968,-8.2195 0,-16.3607 -4.7903,-21.2924 l -17.4884,-14.7169 c -3.1936,-3.2878 -9.5046,-1.6439 -14.2949,-1.6439 h -76.3407 l -4.7904,-4.9317 c -3.1935,0 -6.387,-1.6439 -9.5806,1.6439 l -30.2625,19.6486 c -3.1936,0 -4.7903,8.2195 -6.3871,11.429 l -25.4723,80.238 a 22.202685,22.858037 0 0 0 4.7903,24.5802 l 20.682,22.9363 z m 12.6981,432.424 -6.387,1.6439 h -19.0852 l 114.5871,-345.6104 c 3.1936,-11.429 -1.5967,-24.5802 -12.6981,-27.868 l -6.3871,-1.6439 h -192.5246 a 20.453843,21.057576 0 0 0 -15.8917,16.3607 l -11.1013,40.9409 c -3.19353,11.429 4.7903,21.2924 15.8917,24.5802 l 4.7903,-1.6439 h 28.6658 L 935.55424,1750.91 c -3.19354,11.429 1.59677,26.2241 12.69811,31.1558 l 6.38707,4.9317 h 178.22978 c 9.5046,0 17.4884,-8.2195 20.682,-18.0046 l 11.1013,-39.297 a 20.073661,20.666171 0 0 0 -12.6981,-27.868 z m 844.9187,-322.6741 -30.2626,-40.9409 v -1.6439 c -4.7903,-4.9317 -9.5046,-9.7852 -15.8916,-9.7852 h -114.5872 c -6.3871,0 -11.1013,6.5756 -15.8916,9.7852 l -31.8594,39.297 h -49.3477 l -33.3801,-39.297 v -1.6439 a 19.617441,20.196485 0 0 0 -15.8916,-8.2195 h -63.6427 L 1947.4492,995.81197 1587.8722,628.9092 1909.2788,288.2305 V 140.8274 l -44.5574,-58.9455 h -650.7212 l -52.5412,57.3016 v 47.5166 L 981.63241,0 859.13746,122.8228 820.96709,81.8819 H 178.15374 l -50.94452,60.5894 V 296.45 l 47.75098,47.5165 h 47.75098 V 771.4588 L 0,1000.7437 222.71118,1230.1069 v 524.1692 l 82.72781,47.5165 H 489.9798 L 634.75348,1646.1701 978.43888,2000 1209.1339,1762.4956 c 1.5968,6.5756 6.3871,8.2195 14.2949,11.429 l 6.3871,-3.2878 h 149.5639 c 9.5806,0 17.4884,-1.6439 19.0852,-9.7851 l 11.1014,-32.7214 c 3.1935,-11.4291 -1.5968,-21.2925 -12.6982,-24.5803 l -6.387,1.6439 h -6.3871 l 54.1381,-175.271 36.5736,-37.6531 h 79.5342 l -79.5342,260.4407 c -3.1936,11.429 3.1935,18.0046 14.2948,22.9363 l 6.3871,-3.2878 h 144.7737 c 7.9838,0 15.8916,-1.6439 19.0852,-9.7851 l 12.6981,-29.5119 c 4.7903,-11.4291 -1.5968,-21.2925 -11.1014,-26.2242 -1.5967,-1.6439 -4.7903,0 -7.9838,0 h -6.3871 l 66.8362,-212.9241 h 97.0227 l -81.1311,260.4407 c -3.1935,11.429 3.1936,18.0046 14.2949,21.2924 l 6.3871,-4.9317 h 159.1446 c 7.9838,0 15.8916,-1.6439 19.0852,-9.7851 l 12.6981,-32.7215 c 4.7903,-11.429 -1.5968,-21.2924 -12.6981,-24.5802 -1.5968,-1.6439 -4.7903,1.6439 -7.9839,1.6439 h -11.1013 l 89.1149,-303.0255 a 26.232625,27.006928 0 0 0 -1.5968,-22.9364 z M 981.63241,31.0775 1161.459,216.212 v 77.0284 l 54.062,67.1651 h 25.4722 L 779.60319,819.0536 V 360.4055 h 52.54128 l 42.96068,-68.809 V 145.8374 L 871.91161,140.9057 981.70845,31.1558 Z M 30.186527,1000.7437 222.71118,802.5363 v 396.4147 z m 618.937863,627.4218 929.16721,-982.8173 340.4918,352.18595 -321.4067,330.89355 h -1.5967 a 27.829393,28.650828 0 0 0 -11.1014,8.2195 l -33.38,39.2971 h -46.1542 l -34.9769,-39.2971 c -3.1935,-4.9317 -9.5806,-9.7851 -15.8916,-9.7851 h -139.9834 a 22.050612,22.701476 0 0 0 -20.6819,16.3607 l -12.6982,40.941 c -3.1935,11.429 1.5968,21.2924 12.6982,26.2241 h 23.8754 L 1215.673,1719.989 975.39741,1969.0007 649.20043,1628.3221 Z"
     id="path2"
     inkscape:connector-curvature="0"
     style="fill:#000000;stroke-width:77.15061188" />
  <metadata
     id="metadata4">
    <rdf:RDF>
      <rdf:Description
         about="https://iconscout.com/legal#licenses"
         dc:title="vim"
         dc:description="vim"
         dc:publisher="Iconscout"
         dc:date="2017-09-24"
         dc:format="image/svg+xml"
         dc:language="en">
        <dc:creator>
          <rdf:Bag>
            <rdf:li>Vorillaz</rdf:li>
          </rdf:Bag>
        </dc:creator>
      </rdf:Description>
      <cc:Work
         rdf:about="">
        <dc:format>image/svg+xml</dc:format>
        <dc:type
           rdf:resource="http://purl.org/dc/dcmitype/StillImage" />
        <dc:title></dc:title>
      </cc:Work>
    </rdf:RDF>
  </metadata>
</svg>
